Title, Date, Footer, Description, Day, Session, Start, Duration, Speaker
Deployathon,"2017-07-02", "", "Lorem ipsum dolor sit amet, nisl lorem, wisi egestas orci tempus class massa, suscipit eu elit urna in urna, gravida wisi aenean eros massa, cursus quisque leo quisque dui.", 1, Morning, 9:00, 60, David
Title Two,"2017-07-02","", "Lorem ipsum dolor sit amet, nisl lorem, wisi egestas orci tempus class massa, suscipit eu elit urna in urna, gravida wisi aenean eros massa, cursus quisque leo quisque dui.", 1, Morning, 10:00, 90, Bernard
Title Three,"2017-07-02","", "Lorem ipsum dolor sit amet, nisl lorem, wisi egestas orci tempus class massa, suscipit eu elit urna in urna, gravida wisi aenean eros massa, cursus quisque leo quisque dui.", 1, Morning, 11:30, 60, Carmen
PWA,"2017-07-02","", "Lorem ipsum dolor sit amet, nisl lorem, wisi egestas orci tempus class massa, suscipit eu elit urna in urna, gravida wisi aenean eros massa, cursus quisque leo quisque dui.", 1, Afternoon, 14:00, 60, Rosello
IPV6,"2017-07-02","", "Lorem ipsum dolor sit amet, nisl lorem, wisi egestas orci tempus class massa, suscipit eu elit urna in urna, gravida wisi aenean eros massa, cursus quisque leo quisque dui.", 1, Afternoon, 15:00, 90, Andy
Network One,"2017-07-02","", "Lorem ipsum dolor sit amet, nisl lorem, wisi egestas orci tempus class massa, suscipit eu elit urna in urna, gravida wisi aenean eros massa, cursus quisque leo quisque dui.", 1, Networking, 15:00, 90, Billy
Network Two,"2017-07-02","", "Lorem ipsum dolor sit amet, nisl lorem, wisi egestas orci tempus class massa, suscipit eu elit urna in urna, gravida wisi aenean eros massa, cursus quisque leo quisque dui.", 1, Networking, 15:00, 90, Cynthia
Routing,"2017-07-03","", "Lorem ipsum dolor sit amet, nisl lorem, wisi egestas orci tempus class massa, suscipit eu elit urna in urna, gravida wisi aenean eros massa, cursus quisque leo quisque dui.", 2, Morning, 9:00, 60, John
Sling,"2017-07-03","", "Lorem ipsum dolor sit amet, nisl lorem, wisi egestas orci tempus class massa, suscipit eu elit urna in urna, gravida wisi aenean eros massa, cursus quisque leo quisque dui.", 2, Morning, 10:00, 90, Dumelo
Server Side Rendering,"2017-07-03","", "Lorem ipsum dolor sit amet, nisl lorem, wisi egestas orci tempus class massa, suscipit eu elit urna in urna, gravida wisi aenean eros massa, cursus quisque leo quisque dui.", 2, Morning, 11:30, 60, Robert
5G,"2017-07-03","", "Lorem ipsum dolor sit amet, nisl lorem, wisi egestas orci tempus class massa, suscipit eu elit urna in urna, gravida wisi aenean eros massa, cursus quisque leo quisque dui.", 2, Afternoon, 14:00, 60, Rusell
China vs USA,"2017-07-03","", "Lorem ipsum dolor sit amet, nisl lorem, wisi egestas orci tempus class massa, suscipit eu elit urna in urna, gravida wisi aenean eros massa, cursus quisque leo quisque dui.", 2, Afternoon, 15:00, 90, Tobi
Network One,"2017-07-03","", "Lorem ipsum dolor sit amet, nisl lorem, wisi egestas orci tempus class massa, suscipit eu elit urna in urna, gravida wisi aenean eros massa, cursus quisque leo quisque dui.", 2, Networking, 15:00, 90, Arya
Network Two,"2017-07-03","", "Lorem ipsum dolor sit amet, nisl lorem, wisi egestas orci tempus class massa, suscipit eu elit urna in urna, gravida wisi aenean eros massa, cursus quisque leo quisque dui.", 2, Networking, 15:00, 90, Catherine
